%YAML 1.1
%TAG !u! tag:unity3d.com,2011:
--- !u!1045 &1
EditorBuildSettings:
  m_ObjectHideFlags: 0
  serializedVersion: 2
  m_Scenes:
  - enabled: 0
    path: 
    guid: 00000000000000000000000000000000
  - enabled: 1
    path: Assets/Scenes/MainMenu.unity
    guid: edd06a7bd8f3f6742a42fedd997b6b7b
  - enabled: 0
    path: 
    guid: 00000000000000000000000000000000
  - enabled: 1
    path: Assets/Scenes/Map01.unity
    guid: 22bc43e7567b8a746b42b02a89e8ea1c
  - enabled: 1
    path: Assets/Scenes/Map02.unity
    guid: a281759547a54cb45aba5cfeb977bf7c
  - enabled: 1
    path: Assets/Scenes/Map03.unity
    guid: 3ba5526a30cc33a43b9510a31699a69c
  - enabled: 0
    path: 
    guid: b8b87b2a9ddc3414eadac06ea84eb5a5
  - enabled: 0
    path: 
    guid: 00000000000000000000000000000000
  - enabled: 0
    path: 
    guid: 00000000000000000000000000000000
  m_configObjects: {}
